<?xml version="1.0" encoding="utf-8"?>
<!-- Generator: Adobe Illustrator 24.3.0, SVG Export Plug-In . SVG Version: 6.00 Build 0)  -->
<svg version="1.1" id="Слой_1" xmlns="http://www.w3.org/2000/svg" xmlns:xlink="http://www.w3.org/1999/xlink" x="0px" y="0px"
	 viewBox="0 0 60 60" style="enable-background:new 0 0 60 60;" xml:space="preserve">
<style type="text/css">
	.st0{fill:#568786;}
</style>
<g>
	<path class="st0" d="M30,55.87C15.74,55.87,4.13,44.26,4.13,30S15.74,4.13,30,4.13S55.87,15.74,55.87,30S44.26,55.87,30,55.87z
		 M30,5.52C16.5,5.52,5.52,16.5,5.52,30S16.5,54.48,30,54.48S54.48,43.5,54.48,30S43.5,5.52,30,5.52z M27.59,29.63
		c-0.12,0-0.24-0.03-0.35-0.09l-9.37-5.41c-0.33-0.19-0.45-0.62-0.25-0.95c0.19-0.33,0.62-0.45,0.95-0.25l9.37,5.41
		c0.33,0.19,0.45,0.62,0.25,0.95C28.07,29.51,27.83,29.63,27.59,29.63z M32.29,28.97c-0.18,0-0.36-0.07-0.49-0.2
		c-0.27-0.27-0.27-0.71,0-0.98l12.11-12.11c0.27-0.27,0.71-0.27,0.98,0s0.27,0.71,0,0.98L32.78,28.77
		C32.65,28.9,32.47,28.97,32.29,28.97z"/>
	<path class="st0" d="M30,33.54c-1.95,0-3.54-1.59-3.54-3.54c0-1.95,1.59-3.54,3.54-3.54c1.95,0,3.54,1.59,3.54,3.54
		C33.54,31.95,31.95,33.54,30,33.54z M30,27.85c-1.18,0-2.15,0.96-2.15,2.15c0,1.18,0.96,2.15,2.15,2.15c1.18,0,2.15-0.96,2.15-2.15
		C32.15,28.82,31.18,27.85,30,27.85z"/>
	<path class="st0" d="M30,49.82c-0.38,0-0.7-0.31-0.7-0.7v-1.77c0-0.38,0.31-0.7,0.7-0.7s0.7,0.31,0.7,0.7v1.77
		C30.69,49.51,30.38,49.82,30,49.82z M49.12,30.7h-1.77c-0.38,0-0.7-0.31-0.7-0.7c0-0.38,0.31-0.7,0.7-0.7h1.77
		c0.38,0,0.7,0.31,0.7,0.7C49.82,30.38,49.51,30.7,49.12,30.7z M12.65,30.7h-1.77c-0.38,0-0.7-0.31-0.7-0.7s0.31-0.7,0.7-0.7h1.77
		c0.38,0,0.7,0.31,0.7,0.7S13.03,30.7,12.65,30.7z M30,13.34c-0.38,0-0.7-0.31-0.7-0.7v-1.77c0-0.38,0.31-0.7,0.7-0.7
		s0.7,0.31,0.7,0.7v1.77C30.7,13.03,30.38,13.34,30,13.34z"/>
</g>
</svg>
